Distance Calculations Lab Using R – S. L. Carter
…
The predictions can be found with the predict() function.

Notice how we have to use exp() wrapping predict. This is because we used log(price). We need to reverse the logarithm.

house_sf_dist |> 
  as_tibble() |> 
  mutate(
    price_hat = exp(predict(
      big_model, 
      data = house_sf_dist
    ))
  ) |> 
  select(price, price_hat)
#> # A tibble: 25,357 × 2
#>     price price_hat
#>     <int>     <dbl>
#>  1 303000   311781.
#>  2  92000   112826.
#>  3  90000   140216.
#>  4 330000    52063.
#>  5 185000   213576.
#>  6 100000   128987.
#>  7  43065    79742.
#>  8 305000   246901.
#>  9  56493    52171.
#> 10  50000    89339.
#> # ℹ 25,347 more rows
…
